{
	"info": {
		"_postman_id": "9add0020-9cea-4c48-acaa-1eaf1fd413cb",
		"name": "BART",
		"description": "\n",
		"schema": "https://schema.getpostman.com/json/collection/v2.1.0/collection.json"
	},
	"item": [
		{
			"name": "getBartCrowdingInfo",
			"item": [
				{
					"name": "ExpiredTime",
					"event": [
						{
							"listen": "test",
							"script": {
								"id": "7d919c09-fc99-462c-a06a-c96a40ab7a08",
								"exec": [
									"tests[\"Successful POST request\"] =  responseBody.has(\"No such information\")"
								],
								"type": "text/javascript"
							}
						}
					],
					"request": {
						"method": "POST",
						"header": [
							{
								"key": "Content-Type",
								"name": "Content-Type",
								"value": "application/json",
								"type": "text"
							}
						],
						"body": {
							"mode": "raw",
							"raw": "{\n  \"date_time\": \"2019-09-01 23:59:59\",\n  \"start_station\": \"{{start_station}}\",\n  \"end_station\": \"{{end_station}}\",\n  \"current_station\": \"{{current_station}}\"\n}"
						},
						"url": {
							"raw": "https://fn1e6bh0e5.execute-api.us-west-2.amazonaws.com/getBartCrowdingInfo",
							"protocol": "https",
							"host": [
								"fn1e6bh0e5",
								"execute-api",
								"us-west-2",
								"amazonaws",
								"com"
							],
							"path": [
								"getBartCrowdingInfo"
							]
						},
						"description": "https://bartcrowdingapi.docs.apiary.io/#reference/0/get-bart-crowding-information/get-bart-crowding-information?console=1"
					},
					"response": []
				},
				{
					"name": "Day1-00",
					"event": [
						{
							"listen": "test",
							"script": {
								"id": "8261b18f-2ee0-4a89-a1f9-f6267536fd63",
								"exec": [
									"tests[\"Successful POST request\"] =  responseBody.has(\"success\")"
								],
								"type": "text/javascript"
							}
						}
					],
					"request": {
						"method": "POST",
						"header": [
							{
								"key": "Content-Type",
								"name": "Content-Type",
								"value": "application/json",
								"type": "text"
							}
						],
						"body": {
							"mode": "raw",
							"raw": "{\n  \"date_time\": \"2019-09-02 00:00:00\",\n  \"start_station\": \"{{start_station}}\",\n  \"end_station\": \"{{end_station}}\",\n  \"current_station\": \"{{current_station}}\"\n}"
						},
						"url": {
							"raw": "https://fn1e6bh0e5.execute-api.us-west-2.amazonaws.com/getBartCrowdingInfo",
							"protocol": "https",
							"host": [
								"fn1e6bh0e5",
								"execute-api",
								"us-west-2",
								"amazonaws",
								"com"
							],
							"path": [
								"getBartCrowdingInfo"
							]
						},
						"description": "https://bartcrowdingapi.docs.apiary.io/#reference/0/get-bart-crowding-information/get-bart-crowding-information?console=1"
					},
					"response": []
				},
				{
					"name": "Day1-01",
					"event": [
						{
							"listen": "test",
							"script": {
								"id": "e7dbb8aa-2ea6-4661-a971-2541b3e46278",
								"exec": [
									"tests[\"Successful POST request\"] =  responseBody.has(\"success\")"
								],
								"type": "text/javascript"
							}
						}
					],
					"request": {
						"method": "POST",
						"header": [
							{
								"key": "Content-Type",
								"name": "Content-Type",
								"value": "application/json",
								"type": "text"
							}
						],
						"body": {
							"mode": "raw",
							"raw": "{\n  \"date_time\": \"2019-09-02 00:00:01\",\n  \"start_station\": \"{{start_station}}\",\n  \"end_station\": \"{{end_station}}\",\n  \"current_station\": \"{{current_station}}\"\n}"
						},
						"url": {
							"raw": "https://fn1e6bh0e5.execute-api.us-west-2.amazonaws.com/getBartCrowdingInfo",
							"protocol": "https",
							"host": [
								"fn1e6bh0e5",
								"execute-api",
								"us-west-2",
								"amazonaws",
								"com"
							],
							"path": [
								"getBartCrowdingInfo"
							]
						},
						"description": "https://bartcrowdingapi.docs.apiary.io/#reference/0/get-bart-crowding-information/get-bart-crowding-information?console=1"
					},
					"response": []
				},
				{
					"name": "Day7-59",
					"event": [
						{
							"listen": "test",
							"script": {
								"id": "a2b3e3f3-5743-4c5a-a68a-90ce38f2e5c8",
								"exec": [
									"tests[\"Successful POST request\"] =  responseBody.has(\"success\")"
								],
								"type": "text/javascript"
							}
						}
					],
					"request": {
						"method": "POST",
						"header": [
							{
								"key": "Content-Type",
								"name": "Content-Type",
								"value": "application/json",
								"type": "text"
							}
						],
						"body": {
							"mode": "raw",
							"raw": "{\n  \"date_time\": \"2019-09-08 23:59:59\",\n  \"start_station\": \"{{start_station}}\",\n  \"end_station\": \"{{end_station}}\",\n  \"current_station\": \"{{current_station}}\"\n}"
						},
						"url": {
							"raw": "https://fn1e6bh0e5.execute-api.us-west-2.amazonaws.com/getBartCrowdingInfo",
							"protocol": "https",
							"host": [
								"fn1e6bh0e5",
								"execute-api",
								"us-west-2",
								"amazonaws",
								"com"
							],
							"path": [
								"getBartCrowdingInfo"
							]
						},
						"description": "https://bartcrowdingapi.docs.apiary.io/#reference/0/get-bart-crowding-information/get-bart-crowding-information?console=1"
					},
					"response": []
				},
				{
					"name": "Day8-00",
					"event": [
						{
							"listen": "test",
							"script": {
								"id": "cf7fa6ac-29e6-4848-8e88-28cef8563d99",
								"exec": [
									"tests[\"Successful POST request\"] =  responseBody.has(\"No such information\")"
								],
								"type": "text/javascript"
							}
						}
					],
					"request": {
						"method": "POST",
						"header": [
							{
								"key": "Content-Type",
								"name": "Content-Type",
								"value": "application/json",
								"type": "text"
							}
						],
						"body": {
							"mode": "raw",
							"raw": "{\n  \"date_time\": \"2019-09-09 00:00:00\",\n  \"start_station\": \"{{start_station}}\",\n  \"end_station\": \"{{end_station}}\",\n  \"current_station\": \"{{current_station}}\"\n}"
						},
						"url": {
							"raw": "https://fn1e6bh0e5.execute-api.us-west-2.amazonaws.com/getBartCrowdingInfo",
							"protocol": "https",
							"host": [
								"fn1e6bh0e5",
								"execute-api",
								"us-west-2",
								"amazonaws",
								"com"
							],
							"path": [
								"getBartCrowdingInfo"
							]
						},
						"description": "https://bartcrowdingapi.docs.apiary.io/#reference/0/get-bart-crowding-information/get-bart-crowding-information?console=1"
					},
					"response": []
				},
				{
					"name": "Day8-01",
					"event": [
						{
							"listen": "test",
							"script": {
								"id": "bc797c57-d8dd-4b20-9d56-5a3a1cb417cf",
								"exec": [
									"tests[\"Successful POST request\"] =  responseBody.has(\"No such information\")"
								],
								"type": "text/javascript"
							}
						}
					],
					"request": {
						"method": "POST",
						"header": [
							{
								"key": "Content-Type",
								"name": "Content-Type",
								"value": "application/json",
								"type": "text"
							}
						],
						"body": {
							"mode": "raw",
							"raw": "{\n  \"date_time\": \"2019-09-09 00:00:01\",\n  \"start_station\": \"{{start_station}}\",\n  \"end_station\": \"{{end_station}}\",\n  \"current_station\": \"{{current_station}}\"\n}"
						},
						"url": {
							"raw": "https://fn1e6bh0e5.execute-api.us-west-2.amazonaws.com/getBartCrowdingInfo",
							"protocol": "https",
							"host": [
								"fn1e6bh0e5",
								"execute-api",
								"us-west-2",
								"amazonaws",
								"com"
							],
							"path": [
								"getBartCrowdingInfo"
							]
						},
						"description": "https://bartcrowdingapi.docs.apiary.io/#reference/0/get-bart-crowding-information/get-bart-crowding-information?console=1"
					},
					"response": []
				},
				{
					"name": "TimeAM359",
					"event": [
						{
							"listen": "test",
							"script": {
								"id": "78dba59d-8bd2-4838-9093-6d2d0a906d5b",
								"exec": [
									"tests[\"Successful POST request\"] =  responseBody.has(\"No train on this time slot\")"
								],
								"type": "text/javascript"
							}
						}
					],
					"request": {
						"method": "POST",
						"header": [
							{
								"key": "Content-Type",
								"name": "Content-Type",
								"value": "application/json",
								"type": "text"
							}
						],
						"body": {
							"mode": "raw",
							"raw": "{\n  \"date_time\": \"2019-09-03 03:59:59\",\n  \"start_station\": \"{{start_station}}\",\n  \"end_station\": \"{{end_station}}\",\n  \"current_station\": \"{{current_station}}\"\n}"
						},
						"url": {
							"raw": "https://fn1e6bh0e5.execute-api.us-west-2.amazonaws.com/getBartCrowdingInfo",
							"protocol": "https",
							"host": [
								"fn1e6bh0e5",
								"execute-api",
								"us-west-2",
								"amazonaws",
								"com"
							],
							"path": [
								"getBartCrowdingInfo"
							]
						},
						"description": "https://bartcrowdingapi.docs.apiary.io/#reference/0/get-bart-crowding-information/get-bart-crowding-information?console=1"
					},
					"response": []
				},
				{
					"name": "TimeAM400",
					"event": [
						{
							"listen": "test",
							"script": {
								"id": "429f9c6f-8bfa-4956-a29d-0180a90afa18",
								"exec": [
									"tests[\"Successful POST request\"] =  responseBody.has(\"success\")"
								],
								"type": "text/javascript"
							}
						}
					],
					"request": {
						"method": "POST",
						"header": [
							{
								"key": "Content-Type",
								"name": "Content-Type",
								"value": "application/json",
								"type": "text"
							}
						],
						"body": {
							"mode": "raw",
							"raw": "{\n  \"date_time\": \"2019-09-03 04:00:00\",\n  \"start_station\": \"{{start_station}}\",\n  \"end_station\": \"{{end_station}}\",\n  \"current_station\": \"{{current_station}}\"\n}"
						},
						"url": {
							"raw": "https://fn1e6bh0e5.execute-api.us-west-2.amazonaws.com/getBartCrowdingInfo",
							"protocol": "https",
							"host": [
								"fn1e6bh0e5",
								"execute-api",
								"us-west-2",
								"amazonaws",
								"com"
							],
							"path": [
								"getBartCrowdingInfo"
							]
						},
						"description": "https://bartcrowdingapi.docs.apiary.io/#reference/0/get-bart-crowding-information/get-bart-crowding-information?console=1"
					},
					"response": []
				},
				{
					"name": "TimeAM401",
					"event": [
						{
							"listen": "test",
							"script": {
								"id": "58f6d543-2754-4f0a-a433-882fc09ad4c6",
								"exec": [
									"tests[\"Successful POST request\"] =  responseBody.has(\"success\")"
								],
								"type": "text/javascript"
							}
						}
					],
					"request": {
						"method": "POST",
						"header": [
							{
								"key": "Content-Type",
								"name": "Content-Type",
								"value": "application/json",
								"type": "text"
							}
						],
						"body": {
							"mode": "raw",
							"raw": "{\n  \"date_time\": \"2019-09-03 04:00:01\",\n  \"start_station\": \"{{start_station}}\",\n  \"end_station\": \"{{end_station}}\",\n  \"current_station\": \"{{current_station}}\"\n}"
						},
						"url": {
							"raw": "https://fn1e6bh0e5.execute-api.us-west-2.amazonaws.com/getBartCrowdingInfo",
							"protocol": "https",
							"host": [
								"fn1e6bh0e5",
								"execute-api",
								"us-west-2",
								"amazonaws",
								"com"
							],
							"path": [
								"getBartCrowdingInfo"
							]
						},
						"description": "https://bartcrowdingapi.docs.apiary.io/#reference/0/get-bart-crowding-information/get-bart-crowding-information?console=1"
					},
					"response": []
				},
				{
					"name": "Day4",
					"event": [
						{
							"listen": "test",
							"script": {
								"id": "ebef268e-b278-41ac-9e02-efc0a83289ff",
								"exec": [
									"tests[\"Successful POST request\"] =  responseBody.has(\"success\")"
								],
								"type": "text/javascript"
							}
						}
					],
					"request": {
						"method": "POST",
						"header": [
							{
								"key": "Content-Type",
								"name": "Content-Type",
								"value": "application/json",
								"type": "text"
							}
						],
						"body": {
							"mode": "raw",
							"raw": "{\n  \"date_time\": \"2019-09-04 12:00:00\",\n  \"start_station\": \"{{start_station}}\",\n  \"end_station\": \"{{end_station}}\",\n  \"current_station\": \"{{current_station}}\"\n}"
						},
						"url": {
							"raw": "https://fn1e6bh0e5.execute-api.us-west-2.amazonaws.com/getBartCrowdingInfo",
							"protocol": "https",
							"host": [
								"fn1e6bh0e5",
								"execute-api",
								"us-west-2",
								"amazonaws",
								"com"
							],
							"path": [
								"getBartCrowdingInfo"
							]
						},
						"description": "https://bartcrowdingapi.docs.apiary.io/#reference/0/get-bart-crowding-information/get-bart-crowding-information?console=1"
					},
					"response": []
				},
				{
					"name": "Day4PM300",
					"event": [
						{
							"listen": "test",
							"script": {
								"id": "c244eb51-c0d9-41dd-b4b4-e3a773bd8351",
								"exec": [
									"tests[\"Successful POST request\"] =  responseBody.has(\"No train on this time slot\")"
								],
								"type": "text/javascript"
							}
						}
					],
					"request": {
						"method": "POST",
						"header": [
							{
								"key": "Content-Type",
								"name": "Content-Type",
								"value": "application/json",
								"type": "text"
							}
						],
						"body": {
							"mode": "raw",
							"raw": "{\n  \"date_time\": \"2019-09-04 03:00:00\",\n  \"start_station\": \"{{start_station}}\",\n  \"end_station\": \"{{end_station}}\",\n  \"current_station\": \"{{current_station}}\"\n}"
						},
						"url": {
							"raw": "https://fn1e6bh0e5.execute-api.us-west-2.amazonaws.com/getBartCrowdingInfo",
							"protocol": "https",
							"host": [
								"fn1e6bh0e5",
								"execute-api",
								"us-west-2",
								"amazonaws",
								"com"
							],
							"path": [
								"getBartCrowdingInfo"
							]
						},
						"description": "https://bartcrowdingapi.docs.apiary.io/#reference/0/get-bart-crowding-information/get-bart-crowding-information?console=1"
					},
					"response": []
				},
				{
					"name": "Day0",
					"event": [
						{
							"listen": "test",
							"script": {
								"id": "abd8cbc2-c4d3-41ea-98a4-12a72fa787a7",
								"exec": [
									"tests[\"Successful POST request\"] =  responseBody.has(\"No such information\")"
								],
								"type": "text/javascript"
							}
						}
					],
					"request": {
						"method": "POST",
						"header": [
							{
								"key": "Content-Type",
								"name": "Content-Type",
								"value": "application/json",
								"type": "text"
							}
						],
						"body": {
							"mode": "raw",
							"raw": "{\n  \"date_time\": \"2019-08-04 12:00:00\",\n  \"start_station\": \"{{start_station}}\",\n  \"end_station\": \"{{end_station}}\",\n  \"current_station\": \"{{current_station}}\"\n}"
						},
						"url": {
							"raw": "https://fn1e6bh0e5.execute-api.us-west-2.amazonaws.com/getBartCrowdingInfo",
							"protocol": "https",
							"host": [
								"fn1e6bh0e5",
								"execute-api",
								"us-west-2",
								"amazonaws",
								"com"
							],
							"path": [
								"getBartCrowdingInfo"
							]
						},
						"description": "https://bartcrowdingapi.docs.apiary.io/#reference/0/get-bart-crowding-information/get-bart-crowding-information?console=1"
					},
					"response": []
				},
				{
					"name": "Day30",
					"event": [
						{
							"listen": "test",
							"script": {
								"id": "5eddc40e-be24-40b8-a916-0d404c965c1f",
								"exec": [
									"tests[\"Successful POST request\"] =  responseBody.has(\"No such information\")"
								],
								"type": "text/javascript"
							}
						}
					],
					"request": {
						"method": "POST",
						"header": [
							{
								"key": "Content-Type",
								"name": "Content-Type",
								"value": "application/json",
								"type": "text"
							}
						],
						"body": {
							"mode": "raw",
							"raw": "{\n  \"date_time\": \"2019-10-04 12:00:00\",\n  \"start_station\": \"{{start_station}}\",\n  \"end_station\": \"{{end_station}}\",\n  \"current_station\": \"{{current_station}}\"\n}"
						},
						"url": {
							"raw": "https://fn1e6bh0e5.execute-api.us-west-2.amazonaws.com/getBartCrowdingInfo",
							"protocol": "https",
							"host": [
								"fn1e6bh0e5",
								"execute-api",
								"us-west-2",
								"amazonaws",
								"com"
							],
							"path": [
								"getBartCrowdingInfo"
							]
						},
						"description": "https://bartcrowdingapi.docs.apiary.io/#reference/0/get-bart-crowding-information/get-bart-crowding-information?console=1"
					},
					"response": []
				}
			],
			"event": [
				{
					"listen": "prerequest",
					"script": {
						"id": "aa131b65-242f-44b0-8658-079e43349ad8",
						"type": "text/javascript",
						"exec": [
							""
						]
					}
				},
				{
					"listen": "test",
					"script": {
						"id": "1b0a5998-167f-4f7c-8562-552dda470b7e",
						"type": "text/javascript",
						"exec": [
							""
						]
					}
				}
			]
		}
	],
	"event": [
		{
			"listen": "prerequest",
			"script": {
				"id": "123f4500-8894-4647-8c2e-5bba77924f8c",
				"type": "text/javascript",
				"exec": [
					""
				]
			}
		},
		{
			"listen": "test",
			"script": {
				"id": "668e7664-ad52-47ed-9933-aa4fdf2886eb",
				"type": "text/javascript",
				"exec": [
					""
				]
			}
		}
	]
}